<svg width="34" height="6" viewBox="0 0 34 6" fill="none" xmlns="http://www.w3.org/2000/svg">
<path d="M0 2.17929C0 2.96908 0 3.06735 0 3.85714H27.3722L27.3734 6L34 3L27.3659 0L27.3722 2.17929H0Z" fill="black"/>
</svg>
