<svg width="808" height="415" viewBox="0 0 808 415" fill="none" xmlns="http://www.w3.org/2000/svg">
<path d="M0 0H854V265H0V0Z" fill="#F3F2F2"/>
<path d="M266 225H270V415H266V225Z" fill="#212121"/>
</svg>
