<svg width="59" height="48" viewBox="0 0 59 48" fill="none" xmlns="http://www.w3.org/2000/svg">
<path d="M0 22.9065H59V32.9065H0V22.9065Z" fill="#32A8FE"/>
<path d="M33.3524 0.744687C32.8723 0.264526 32.2339 0 31.5547 0H12.9016C11.4998 0 10.3594 1.14042 10.3594 2.54219V37.327C10.3594 38.7288 11.4998 39.8691 12.9016 39.8691H14.3285V41.2962C14.3285 42.698 15.4689 43.8384 16.8707 43.8384H18.4898V45.4579C18.4898 46.8597 19.6303 48 21.032 48H45.4568C46.8586 48 47.9989 46.8597 47.9989 45.4579V34.6812C47.9989 33.4479 46.0779 33.4462 46.0779 34.6812V45.4579C46.0779 45.8003 45.7993 46.079 45.4568 46.079H21.032C20.6896 46.079 20.4109 45.8004 20.4109 45.4579V10.673C20.4109 10.3306 20.6895 10.0519 21.032 10.0519H39.2774V14.3441C39.2774 15.7459 40.4178 16.8862 41.8196 16.8862H46.0779V26.9255C46.0779 28.1588 47.9989 28.1606 47.9989 26.9255V16.4447C47.9989 15.7656 47.7345 15.1272 47.2544 14.6471L33.3524 0.744687ZM12.9016 37.9481C12.5591 37.9481 12.2804 37.6696 12.2804 37.327V2.54219C12.2804 2.19977 12.5591 1.92103 12.9016 1.92103H31.5547C31.7206 1.92103 31.8765 1.98558 31.9938 2.10305L33.86 3.96923H16.8707C15.4689 3.96923 14.3285 5.10965 14.3285 6.51143V37.9482H12.9016V37.9481ZM18.4899 10.673V41.9173H16.8708C16.5284 41.9173 16.2496 41.6387 16.2496 41.2962V6.51133C16.2496 6.16891 16.5283 5.89017 16.8708 5.89017H35.5239C35.6898 5.89017 35.8458 5.95481 35.9631 6.07218L38.0218 8.13095H21.032C19.6304 8.13085 18.4899 9.27127 18.4899 10.673ZM41.1984 14.3441V11.308L44.8556 14.9652H41.8196C41.4772 14.9652 41.1984 14.6866 41.1984 14.3441Z" fill="black"/>
<path d="M25.1136 20.7055H31.7476C32.9809 20.7055 32.9826 18.7844 31.7476 18.7844H25.1136C23.8803 18.7844 23.8786 20.7055 25.1136 20.7055Z" fill="black"/>
<path d="M41.6792 22.8081H25.1136C23.8803 22.8081 23.8786 24.7291 25.1136 24.7291H41.6792C42.9125 24.7291 42.9144 22.8081 41.6792 22.8081Z" fill="black"/>
<path d="M41.6792 27.082H25.1136C23.8803 27.082 23.8786 29.0031 25.1136 29.0031H41.6792C42.9125 29.0031 42.9144 27.082 41.6792 27.082Z" fill="black"/>
<path d="M41.6792 31.231H25.1136C23.8803 31.231 23.8786 33.152 25.1136 33.152H41.6792C42.9125 33.152 42.9144 31.231 41.6792 31.231Z" fill="black"/>
<path d="M41.6792 35.3799H25.1136C23.8803 35.3799 23.8786 37.3009 25.1136 37.3009H41.6792C42.9125 37.3009 42.9144 35.3799 41.6792 35.3799Z" fill="black"/>
<path d="M47.7349 30.3302C47.4446 29.895 46.8377 29.7751 46.4027 30.065C45.9663 30.3558 45.8488 30.9617 46.1376 31.3972C46.4271 31.834 47.035 31.9511 47.4697 31.6623C47.9083 31.3711 48.0205 30.7671 47.7349 30.3302Z" fill="black"/>
</svg>
