<svg width="69" height="45" viewBox="0 0 69 45" fill="none" xmlns="http://www.w3.org/2000/svg">
<path d="M0 20.9062H69V30.9062H0V20.9062Z" fill="#32A8FE"/>
<path d="M12.5356 37.3621C12.0411 37.3621 11.6403 37.763 11.6403 38.2574C11.6403 38.8169 11.1851 39.2721 10.6256 39.2721C10.0661 39.2721 9.61092 38.8169 9.61092 38.2574C9.61092 37.6979 10.0661 37.2428 10.6256 37.2428C11.12 37.2428 11.5209 36.8419 11.5209 36.3475C11.5209 35.853 11.12 35.4521 10.6256 35.4521C9.07875 35.4521 7.82031 36.7106 7.82031 38.2574C7.82031 39.8043 9.07875 41.0627 10.6256 41.0627C12.1724 41.0627 13.4309 39.8043 13.4309 38.2574C13.4309 37.763 13.03 37.3621 12.5356 37.3621Z" fill="black"/>
<path d="M42.1409 36.407C41.6464 36.407 41.2456 36.8078 41.2456 37.3023C41.2456 38.3883 40.362 39.2719 39.2759 39.2719C38.1898 39.2719 37.3062 38.3883 37.3062 37.3023C37.3062 36.2162 38.1898 35.3326 39.2759 35.3326C39.7703 35.3326 40.1712 34.9317 40.1712 34.4373C40.1712 33.9428 39.7703 33.542 39.2759 33.542C37.2025 33.542 35.5156 35.2289 35.5156 37.3023C35.5156 39.3757 37.2025 41.0625 39.2759 41.0625C41.3493 41.0625 43.0362 39.3757 43.0362 37.3023C43.0362 36.8078 42.6353 36.407 42.1409 36.407Z" fill="black"/>
<path d="M64.1047 39.272H49.7798C49.7469 39.272 49.7202 39.2453 49.7202 39.2123V22.9775C49.7202 21.9572 48.8902 21.1272 47.8699 21.1272H45.9002V1.96773C45.9002 0.947438 45.0702 0.117432 44.0499 0.117432H38.32C37.8255 0.117432 37.4247 0.518289 37.4247 1.01273C37.4247 1.50718 37.8255 1.90804 38.32 1.90804H40.2896V26.9073C39.9543 26.8752 39.6161 26.8572 39.275 26.8572C38.9326 26.8572 38.5943 26.8742 38.2603 26.9066V22.091C38.2603 21.2646 38.0418 20.4494 37.6286 19.7335L30.5974 7.55454C29.8145 5.93607 28.1525 4.89238 26.3527 4.89238H12.5352C10.9884 4.89238 9.72994 6.15082 9.72994 7.69767V23.9922H8.71526C6.64186 23.9922 4.95499 25.6791 4.95499 27.7525V34.4374C4.95499 34.546 4.97528 34.6498 5.01086 34.7461C4.37137 35.7649 4 36.9682 4 38.2574C4 41.9105 6.97205 44.8826 10.6252 44.8826C13.6362 44.8826 16.1827 42.8629 16.9856 40.1076H29.9091C29.9112 40.1076 29.9131 40.1079 29.9151 40.1079C29.9169 40.1079 29.9186 40.1076 29.9203 40.1076H32.235C33.3527 42.9023 36.086 44.8826 39.2748 44.8826C43.4546 44.8826 46.8551 41.4821 46.8551 37.3024C46.8551 35.9616 46.5036 34.7018 45.8903 33.6079C45.896 33.5668 45.9001 33.5251 45.9001 33.4824V29.7094C45.9016 29.6793 45.9015 29.6491 45.9001 29.6191V22.9178H47.8697C47.9027 22.9178 47.9294 22.9446 47.9294 22.9775V39.2123C47.9294 40.2326 48.7594 41.0626 49.7797 41.0626H64.1046C64.599 41.0626 64.9999 40.6618 64.9999 40.1673C64.9999 39.6729 64.5991 39.272 64.1047 39.272ZM44.0499 1.90804C44.0829 1.90804 44.1096 1.93478 44.1096 1.96773V21.1272H42.0802V1.90804H44.0499ZM28.9958 8.35565C29.0062 8.3775 29.0174 8.39899 29.0296 8.42L35.8143 20.1722H22.0254V9.60765C22.0254 9.1132 21.6246 8.71234 21.1301 8.71234C20.6357 8.71234 20.2348 9.1132 20.2348 9.60765V20.1722H18.2652C17.1791 20.1722 16.2955 19.2886 16.2955 18.2026V6.68299H26.3527C27.477 6.68299 28.5145 7.33954 28.9958 8.35565ZM11.5205 7.69767C11.5205 7.13816 11.9757 6.68299 12.5352 6.68299H14.5049V18.2026C14.5049 20.276 16.1918 21.9628 18.2652 21.9628H36.41C36.4287 21.9628 36.447 21.9612 36.4654 21.9601C36.4673 22.0037 36.4697 22.0473 36.4697 22.091V27.2402C35.2352 27.5849 34.0925 28.151 33.0867 28.8931L30.1264 25.9326C28.875 24.6813 27.2113 23.9922 25.4417 23.9922H11.5205V7.69767ZM10.6252 43.092C7.95939 43.092 5.79061 40.9232 5.79061 38.2574C5.79061 35.5915 7.95939 33.4227 10.6252 33.4227C13.2911 33.4227 15.4599 35.5915 15.4599 38.2574C15.4599 40.9232 13.2911 43.092 10.6252 43.092ZM10.6252 31.6321C9.17712 31.6321 7.83703 32.1004 6.7456 32.8917V27.7525C6.7456 26.6664 7.6292 25.7828 8.71526 25.7828H25.4417C26.7331 25.7828 27.9471 26.2857 28.8603 27.1988L31.7389 30.0774C29.938 31.9549 28.8297 34.5016 28.8297 37.3024C28.8297 37.6414 28.8469 37.9803 28.8795 38.317H17.2491C17.2492 38.2971 17.2506 38.2774 17.2506 38.2574C17.2505 34.6042 14.2784 31.6321 10.6252 31.6321ZM30.6817 38.317C30.6426 37.981 30.6204 37.642 30.6204 37.3024C30.6204 32.5302 34.5027 28.6478 39.275 28.6478C41.018 28.6478 42.6799 29.1576 44.1096 30.1242V31.4688C42.7965 30.3787 41.111 29.7221 39.275 29.7221C35.0952 29.7221 31.6947 33.1226 31.6947 37.3024C31.6947 37.6466 31.7199 37.9848 31.7646 38.317H30.6817ZM39.275 43.092C36.0825 43.092 33.4853 40.4948 33.4853 37.3024C33.4853 34.11 36.0825 31.5127 39.275 31.5127C42.4674 31.5127 45.0646 34.11 45.0646 37.3024C45.0646 40.4948 42.4674 43.092 39.275 43.092ZM44.1096 28.0396C43.4615 27.6997 42.782 27.4324 42.0802 27.2376V22.9178H44.1096V28.0396Z" fill="black"/>
</svg>
