<svg width="59" height="48" viewBox="0 0 59 48" fill="none" xmlns="http://www.w3.org/2000/svg">
<path d="M0 22.9062H59V32.9062H0V22.9062Z" fill="#32A8FE"/>
<path d="M45.9706 7.02938C41.4375 2.49638 35.4106 0 29 0C24.1222 0 19.4258 1.45641 15.4186 4.21163C14.992 4.50497 14.884 5.08866 15.1773 5.51531C15.4707 5.94187 16.0542 6.04987 16.481 5.75663C20.1742 3.21722 24.5032 1.875 29 1.875C41.1998 1.875 51.125 11.8002 51.125 24C51.125 36.1998 41.1998 46.125 29 46.125C16.8002 46.125 6.875 36.1998 6.875 24C6.875 19.5026 8.21712 15.1738 10.7562 11.4817C11.0495 11.055 10.9415 10.4713 10.5149 10.178C10.0883 9.88472 9.50469 9.99253 9.21125 10.4192C6.45622 14.4254 5 19.1216 5 24C5 30.4106 7.49638 36.4375 12.0294 40.9706C16.5625 45.5036 22.5894 48 29 48C35.4106 48 41.4375 45.5036 45.9706 40.9706C50.5036 36.4375 53 30.4106 53 24C53 17.5894 50.5036 11.5625 45.9706 7.02938Z" fill="black"/>
<path d="M29 43.3125C39.649 43.3125 48.3125 34.649 48.3125 24C48.3125 21.7872 47.9373 19.6607 47.2491 17.6793C47.2471 17.6741 47.2456 17.6688 47.2436 17.6637C44.6153 10.1177 37.4304 4.6875 29 4.6875C18.3511 4.6875 9.6875 13.351 9.6875 24C9.6875 34.649 18.3511 43.3125 29 43.3125ZM46.4375 24C46.4375 24.4486 46.4204 24.8933 46.387 25.3335C45.4029 25.3849 44.4435 25.531 43.5173 25.7618C43.8216 23.1947 43.4387 20.561 42.4208 18.193C43.5017 18.3777 44.5785 18.5847 45.6501 18.8138C46.1617 20.4528 46.4375 22.1947 46.4375 24ZM40.1641 17.8404C41.5892 20.4249 42.0759 23.4996 41.5216 26.4096C37.2423 28.1365 33.9241 31.7584 32.6119 36.2302C30.2656 36.9208 27.7342 36.9208 25.388 36.2302C24.0759 31.7585 20.7577 28.1365 16.4784 26.4097C15.9241 23.4999 16.4111 20.4247 17.8358 17.8405C21.5328 17.3174 25.2686 17.0517 29 17.0517C32.7313 17.0517 36.467 17.3173 40.1641 17.8404ZM14.4826 25.7618C13.5564 25.5311 12.5971 25.3849 11.613 25.3335C11.5796 24.8933 11.5625 24.4486 11.5625 24C11.5625 22.1947 11.8383 20.4528 12.3499 18.8138C13.4215 18.5847 14.4982 18.3777 15.5792 18.193C14.5615 20.5609 14.1784 23.1949 14.4826 25.7618ZM11.8634 27.2288C18.7146 27.7664 24.125 33.5131 24.125 40.5C24.125 40.5805 24.1235 40.6613 24.122 40.7422C17.8828 38.9213 13.08 33.7002 11.8634 27.2288ZM25.9842 41.1758C25.9942 40.9501 26 40.7243 26 40.4999C26 39.7461 25.9439 39.0052 25.8373 38.2805C26.876 38.5088 27.9378 38.6234 29 38.6234C30.0619 38.6234 31.1239 38.5088 32.1627 38.2805C32.0561 39.0052 32 39.7461 32 40.5C32 40.7244 32.0058 40.9502 32.0158 41.1758C31.0359 41.3473 30.0283 41.4375 29 41.4375C27.9718 41.4375 26.9642 41.3473 25.9842 41.1758ZM33.878 40.7422C33.8765 40.6613 33.875 40.5804 33.875 40.5C33.875 33.5132 39.2855 27.7665 46.1367 27.2289C44.92 33.7002 40.1172 38.9213 33.878 40.7422ZM29 6.5625C36.0236 6.5625 42.0898 10.737 44.8499 16.7347C39.6373 15.7016 34.3142 15.1768 28.9999 15.1768C23.6856 15.1768 18.3625 15.7017 13.15 16.7348C15.9102 10.7369 21.9764 6.5625 29 6.5625Z" fill="black"/>
<path d="M24.3125 24C24.3125 26.5847 26.4153 28.6875 29 28.6875C31.5847 28.6875 33.6875 26.5847 33.6875 24C33.6875 21.4153 31.5847 19.3125 29 19.3125C26.4153 19.3125 24.3125 21.4153 24.3125 24ZM29 21.1875C30.5508 21.1875 31.8125 22.4492 31.8125 24C31.8125 25.5508 30.5508 26.8125 29 26.8125C27.4492 26.8125 26.1875 25.5508 26.1875 24C26.1875 22.4492 27.4492 21.1875 29 21.1875Z" fill="black"/>
<path d="M12.6914 8.62992C12.9315 8.62992 13.1716 8.53824 13.3547 8.35514C13.7208 7.98905 13.7208 7.39542 13.3547 7.02933C12.9886 6.66324 12.395 6.66324 12.0289 7.02933L12.0284 7.0298C11.6623 7.39589 11.6625 7.98924 12.0286 8.35533C12.2116 8.53852 12.4515 8.62992 12.6914 8.62992Z" fill="black"/>
</svg>
